%YAML 1.1
%TAG !u! tag:unity3d.com,2011:
--- !u!114 &11400000
MonoBehaviour:
  m_ObjectHideFlags: 0
  m_CorrespondingSourceObject: {fileID: 0}
  m_PrefabInstance: {fileID: 0}
  m_PrefabAsset: {fileID: 0}
  m_GameObject: {fileID: 0}
  m_Enabled: 1
  m_EditorHideFlags: 0
  m_Script: {fileID: 11500000, guid: 3e443e84f1a83504a90ed39783bdd93c, type: 3}
  m_Name: TurretInfo
  m_EditorClassIdentifier: 
  m_TurretPreviewMaterial: {fileID: 2100000, guid: bab3670e89431d946a4adfba3407b07f,
    type: 2}
  m_TurretDatas:
  - turretType: 0
    _AttackDelay: 0.2
    turretPrefab: {fileID: 2381841866689277418, guid: 634d77fac210ea549a355f24d1cb9e9d,
      type: 3}
